pr/simulation/qsim/adder_mod.msim.vcd
$comment
	File created using the following command:
		vcd file adder_mod.msim.vcd -direction
$end
$date
	Tue Oct 04 17:56:48 2022
$end
$version
	ModelSim Version 10.5b
$end
$timescale
	1ps
$end

$scope module adder_mod_vlg_vec_tst $end
$var reg 8 ! a [7:0] $end
$var reg 8 " b [7:0] $end
$var reg 1 # cin $end
$var wire 1 $ cout $end
$var wire 1 % over $end
$var wire 1 & s [7] $end
$var wire 1 ' s [6] $end
$var wire 1 ( s [5] $end
$var wire 1 ) s [4] $end
$var wire 1 * s [3] $end
$var wire 1 + s [2] $end
$var wire 1 , s [1] $end
$var wire 1 - s [0] $end

$scope module i1 $end
$var wire 1 . gnd $end
$var wire 1 / vcc $end
$var wire 1 0 unknown $end
$var tri1 1 1 devclrn $end
$var tri1 1 2 devpor $end
$var tri1 1 3 devoe $end
$var wire 1 4 over~output_o $end
$var wire 1 5 cout~output_o $end
$var wire 1 6 s[7]~output_o $end
$var wire 1 7 s[6]~output_o $end
$var wire 1 8 s[5]~output_o $end
$var wire 1 9 s[4]~output_o $end
$var wire 1 : s[3]~output_o $end
$var wire 1 ; s[2]~output_o $end
$var wire 1 < s[1]~output_o $end
$var wire 1 = s[0]~output_o $end
$var wire 1 > b[7]~input_o $end
$var wire 1 ? a[7]~input_o $end
$var wire 1 @ b[6]~input_o $end
$var wire 1 A a[6]~input_o $end
$var wire 1 B b[5]~input_o $end
$var wire 1 C a[5]~input_o $end
$var wire 1 D b[4]~input_o $end
$var wire 1 E a[4]~input_o $end
$var wire 1 F b[3]~input_o $end
$var wire 1 G a[3]~input_o $end
$var wire 1 H b[2]~input_o $end
$var wire 1 I a[2]~input_o $end
$var wire 1 J b[1]~input_o $end
$var wire 1 K a[1]~input_o $end
$var wire 1 L b[0]~input_o $end
$var wire 1 M a[0]~input_o $end
$var wire 1 N cin~input_o $end
$var wire 1 O inst|LPM_ADD_SUB_component|auto_generated|result_int[0]~1_cout $end
$var wire 1 P inst|LPM_ADD_SUB_component|auto_generated|result_int[1]~3 $end
$var wire 1 Q inst|LPM_ADD_SUB_component|auto_generated|result_int[2]~5 $end
$var wire 1 R inst|LPM_ADD_SUB_component|auto_generated|result_int[3]~7 $end
$var wire 1 S inst|LPM_ADD_SUB_component|auto_generated|result_int[4]~9 $end
$var wire 1 T inst|LPM_ADD_SUB_component|auto_generated|result_int[5]~11 $end
$var wire 1 U inst|LPM_ADD_SUB_component|auto_generated|result_int[6]~13 $end
$var wire 1 V inst|LPM_ADD_SUB_component|auto_generated|result_int[7]~15 $end
$var wire 1 W inst|LPM_ADD_SUB_component|auto_generated|result_int[8]~17 $end
$var wire 1 X inst|LPM_ADD_SUB_component|auto_generated|result_int[9]~18_combout $end
$var wire 1 Y inst|LPM_ADD_SUB_component|auto_generated|result_int[8]~16_combout $end
$var wire 1 Z inst|LPM_ADD_SUB_component|auto_generated|result_int[7]~14_combout $end
$var wire 1 [ inst|LPM_ADD_SUB_component|auto_generated|result_int[6]~12_combout $end
$var wire 1 \ inst|LPM_ADD_SUB_component|auto_generated|result_int[5]~10_combout $end
$var wire 1 ] inst|LPM_ADD_SUB_component|auto_generated|result_int[4]~8_combout $end
$var wire 1 ^ inst|LPM_ADD_SUB_component|auto_generated|result_int[3]~6_combout $end
$var wire 1 _ inst|LPM_ADD_SUB_component|auto_generated|result_int[2]~4_combout $end
$var wire 1 ` inst|LPM_ADD_SUB_component|auto_generated|result_int[1]~2_combout $end
$upscope $end
$upscope $end
$enddefinitions $end
#0
$dumpvars
b0 !
b0 "
0#
0$
0%
0-
0,
0+
0*
0)
0(
0'
0&
0.
1/
x0
11
12
13
04
05
06
07
08
09
0:
0;
0<
0=
0>
0?
0@
0A
0B
0C
0D
0E
0F
0G
0H
0I
0J
0K
0L
0M
0N
0O
1P
0Q
1R
0S
1T
0U
1V
0W
0X
0Y
0Z
0[
0\
0]
0^
0_
0`
$end
#120000
b1 !
b1 "
1L
1M
0P
1_
1<
1,
#200000
b1001 !
b11 "
1J
1G
1Q
0_
1]
1:
0<
0,
1*
1^
1;
1+
#280000
b1001001 !
b111 "
1#
b1000001 !
b101 "
0J
1H
0G
1A
1N
0Q
0R
1O
1_
0^
0]
1Z
17
0:
0;
1<
1R
1,
0+
0*
1'
1^
1]
1`
1=
1:
1;
1+
1*
1-
0]
0:
0*
#360000
b1101 "
b1001001 !
b1111 "
1G
1J
1F
1S
1Q
0_
0<
0R
0,
1\
0^
0;
19
1)
0+
1]
1:
1*
#440000
b11001001 !
b10001111 "
b11001111 "
b10001001 !
b11001011 "
0#
b11000011 "
b10000001 !
b11000001 "
0J
0H
0F
1@
1>
0G
0A
1?
0N
0Q
1R
0S
1W
0O
1_
1^
1;
1<
1,
1+
0^
0]
0\
1X
0`
0=
14
15
09
0:
0;
0+
0*
0)
1$
1%
0-
#520000
b11100001 "
b10001001 !
1G
1B
1]
1[
18
1:
1*
1(
#600000
b11001001 !
b11100101 "
1#
b11101101 "
b11000001 !
1H
1F
0G
1A
1N
0V
1O
1^
0Z
07
1;
1+
0'
1Y
1`
1=
16
1&
1-
#680000
b11101111 "
b11001001 !
1G
1J
1S
1Q
0]
0_
0<
0:
0R
0*
0,
1\
0^
0;
19
1)
0+
1]
1:
1*
#760000
b11001000 !
b11101110 "
b1001000 !
b1101110 "
b101110 "
b1110 "
b1000 !
b1010 "
0#
b10 "
b0 "
b0 !
0L
0J
0H
0F
0B
0@
0>
0M
0G
0A
0?
0N
1P
0Q
1R
0S
1V
0W
0O
1_
1^
0[
08
1;
1<
1,
1+
0(
0_
0^
0]
0\
0Y
0X
0`
0=
04
05
06
09
0:
0;
0<
0,
0+
0*
0)
0&
0$
0%
0-
